…
First, select a city and checkout the available screening details:

``` r
library(kino)

my_city <- get_city(city_url = "https://www.cineplex.de/filmreihe/originals/614/muenster/")

my_screenings_details <- get_screenings(city_html = my_city)

my_screenings_details
```

    ## # A tibble: 22 x 5
    ##    german_title                      dates    times release_types sites   
    ##    <chr>                             <chr>    <chr> <chr>         <chr>   
    ##  1 Münster Above - Der Film          2018-10… 19:30 2D OmU        Cineplex
    ##  2 Down by Law                       2018-10… 22:45 2D OmU        Schloßt…
    ##  3 Down by Law                       2018-10… 22:45 2D OmU        Schloßt…
    ##  4 Kindeswohl                        2018-10… 17:00 2D OmU        Schloßt…
    ##  5 Champagner & Macarons - Ein unve… 2018-10… 18:40 2D OmU        Schloßt…
    ##  6 Intrigo - Tod eines Autors        2018-10… 20:30 2D OV         Schloßt…
    ##  7 Venom                             2018-10… 21:30 2D OV         Cineplex
    ##  8 A Star is Born                    2018-10… 21:50 2D OmU        Cineplex
    ##  9 Johnny English - Man lebt nur dr… 2018-10… 22:10 2D OmU        Cineplex
    ## 10 Bohemian Rhapsody                 2018-10… 21:00 2D OmU        Cineplex
    ## # ... with 12 more rows
…
